<?xml version="1.0" encoding="UTF-8"?>
<svg width="24px" height="24px" viewBox="0 0 24 24" version="1.1" xmlns="http://www.w3.org/2000/svg" xmlns:xlink="http://www.w3.org/1999/xlink">
    <!-- Generator: Sketch 51.3 (57544) - http://www.bohemiancoding.com/sketch -->
    <title>linkedin</title>
    <desc>Created with Sketch.</desc>
    <defs></defs>
    <g id="linkedin" stroke="none" stroke-width="1" fill="none" fill-rule="evenodd">
        <g id="iconmonstr-linkedin-1" transform="translate(3.000000, 4.000000)" fill="#FFFFFF" fill-rule="nonzero">
            <path d="M3.735,1.84782609 C3.735,2.86856522 2.9025,3.69565217 1.875,3.69565217 C0.8475,3.69565217 0.015,2.86856522 0.015,1.84782609 C0.015,0.827826087 0.8475,0 1.875,0 C2.9025,0 3.735,0.827826087 3.735,1.84782609 Z M3.75,5.17391304 L0,5.17391304 L0,17 L3.75,17 L3.75,5.17391304 Z M9.7365,5.17391304 L6.0105,5.17391304 L6.0105,17 L9.73725,17 L9.73725,10.7920435 C9.73725,7.34030435 14.259,7.05795652 14.259,10.7920435 L14.259,17 L18,17 L18,9.51186957 C18,3.68752174 11.3085,3.89965217 9.7365,6.76673913 L9.7365,5.17391304 Z" id="Shape"></path>
        </g>
    </g>
</svg>